{
    "pergunta": "Você conhece o Mário?",
    "respostas": [
        {
            "id": 1,
            "resposta": "Sim"
        },
        {
            "id": 2,
            "resposta": "Não"
        },
        {
            "id": 3,
            "resposta": "Talvez"
        },
        {
            "id": 4,
            "resposta": "Que Mário?"
        }
    ]
}